{
    "data":  [
                 {
                     "id":  1316,
                     "fgd":  "FGD01971",
                     "barcode":  "FGD01971",
                     "slug":  "nihlah",
                     "name_en":  "Nihlah s",
                     "name_ar":  "نهلة",
                     "description_en":  "\u003cp\u003eA rich contrast of sparkling citrus and sumptuous woods—Nihlah unfolds from saffron-kissed fruits to plush leather, rose, and a velvety oud–musk embrace.\u003c/p\u003e\u003cp\u003eCrafted for presence, Nihlah greets you with bergamot, lemon, black currant, and raspberry brightened by saffron, nutmeg, and ginger. The heart deepens into leather, oakwood, Damascena rose, patchouli, cashmeran, caramel, and plum—textured, plush, and irresistibly smooth. In the base, oud merges with papyrus, vetiver, incense, cedarwood, white musk, and a whisper of talc, leaving a refined, powdery-woody trail that lingers with quiet confidence.\u003c/p\u003e",
                     "description_ar":  "\u003cp\u003eتباين آسر بين انتعاش الحمضيات ودفء الأخشاب—«نهلة» يتفتح من زعفران وفواكه ناعمة إلى جلد وورد، وينتهي بحضن عود ومسك مخملي.\u003c/p\u003e\u003cp\u003eتبدأ الرائحة بشرارة من البرغموت والليمون مع الكشمش الأسود والتوت العليق، يعززها الزعفران وجوزة الطيب والزنجبيل. يتعمّق القلب إلى جلد وخشب السنديان وورد دمشقي وباتشولي مع كشميران ولمسة كراميل وبرقوق لملمس مخملي فاخر. أما القاعدة فتجمع العود والبردي والفيتيفير والبخور وخشب الأرز والمسك الأبيض ولمسة بودرة تلك، لتبقى هالة خشبية بودرية أنيقة تدوم بثقة هادئة.\u003c/p\u003e",
                     "category_id":  1,
                     "subcategory_id":  1,
                     "brand":  null,
                     "weight_grams":  null,
                     "size_label_en":  75,
                     "size_label_ar":  75,
                     "is_active":  1,
                     "is_featured":  0,
                     "tags":  null,
                     "attributes":  {
                                        "0":  "{",
                                        "1":  "\"",
                                        "2":  "L",
                                        "3":  "o",
                                        "4":  "n",
                                        "5":  "g",
                                        "6":  "e",
                                        "7":  "v",
                                        "8":  "i",
                                        "9":  "t",
                                        "10":  "y",
                                        "11":  "\"",
                                        "12":  ":",
                                        "13":  "\"",
                                        "14":  "6",
                                        "15":  "-",
                                        "16":  "7",
                                        "17":  "h",
                                        "18":  "r",
                                        "19":  "s",
                                        "20":  "\"",
                                        "21":  ",",
                                        "22":  "\"",
                                        "23":  "D",
                                        "24":  "i",
                                        "25":  "s",
                                        "26":  "p",
                                        "27":  "e",
                                        "28":  "n",
                                        "29":  "s",
                                        "30":  "e",
                                        "31":  "r",
                                        "32":  "\"",
                                        "33":  ":",
                                        "34":  "\"",
                                        "35":  "s",
                                        "36":  "p",
                                        "37":  "r",
                                        "38":  "a",
                                        "39":  "y",
                                        "40":  "\"",
                                        "41":  ",",
                                        "42":  "\"",
                                        "43":  "O",
                                        "44":  "c",
                                        "45":  "c",
                                        "46":  "a",
                                        "47":  "s",
                                        "48":  "i",
                                        "49":  "o",
                                        "50":  "n",
                                        "51":  "\"",
                                        "52":  ":",
                                        "53":  "\"",
                                        "54":  "B",
                                        "55":  "e",
                                        "56":  "s",
                                        "57":  "t",
                                        "59":  "w",
                                        "60":  "o",
                                        "61":  "r",
                                        "62":  "n",
                                        "64":  "o",
                                        "65":  "n",
                                        "67":  "c",
                                        "68":  "o",
                                        "69":  "l",
                                        "70":  "d",
                                        "72":  "e",
                                        "73":  "v",
                                        "74":  "e",
                                        "75":  "n",
                                        "76":  "i",
                                        "77":  "n",
                                        "78":  "g",
                                        "79":  "s",
                                        "80":  ",",
                                        "82":  "f",
                                        "83":  "o",
                                        "84":  "r",
                                        "85":  "m",
                                        "86":  "a",
                                        "87":  "l",
                                        "89":  "e",
                                        "90":  "v",
                                        "91":  "e",
                                        "92":  "n",
                                        "93":  "t",
                                        "94":  "s",
                                        "95":  ",",
                                        "97":  "a",
                                        "98":  "n",
                                        "99":  "d",
                                        "101":  "L",
                                        "102":  "u",
                                        "103":  "x",
                                        "104":  "u",
                                        "105":  "r",
                                        "106":  "y",
                                        "108":  "d",
                                        "109":  "i",
                                        "110":  "n",
                                        "111":  "n",
                                        "112":  "e",
                                        "113":  "r",
                                        "114":  "s",
                                        "115":  ".",
                                        "116":  "\"",
                                        "117":  "}"
                                    },
                     "created_at":  "2026-03-25T06:26:08.000Z",
                     "updated_at":  "2026-03-26T07:34:25.000Z",
                     "category_name_en":  "Perfumes",
                     "category_name_ar":  "",
                     "sub_name_en":  "Oriental Fragrance",
                     "sub_name_ar":  "عطور شرقية",
                     "fragrance_notes":  [
                                             {
                                                 "id":  461,
                                                 "product_id":  1316,
                                                 "note_type":  "top",
                                                 "ingredients_en":  "[\"[\\\"Bergamot\\\"\",\"\\\"Black currant\\\"\",\"\\\"Lemon\\\"\",\"\\\"Saffron\\\"\",\"\\\"Nutmeg\\\"\",\"\\\"Ginger\\\"\",\"\\\"Raspberry\\\"]\"]",
                                                 "ingredients_ar":  "[\"[\\\"البرغموت، الكشمش الأسود، الليمون، الزعفران، جوزة الطيب، الزنجبيل، التوت العليق\\\"]\"]",
                                                 "description_en":  "\u003cp\u003eBright and spirited: bergamot and lemon sparkle over black currant and raspberry, warmed by saffron, nutmeg, and ginger for a zesty, spiced-fruity lift.\u003cbr\u003e\u0026nbsp;\u003c/p\u003e",
                                                 "description_ar":  "\u003cp data-start=\"1800\" data-end=\"2134\"\u003eمنعشة وحيوية: يلمع البرغموت والليمون فوق الكشمش الأسود والتوت العليق، تدفئهما لمسات الزعفران وجوزة الطيب والزنجبيل لانتعاش فاكهي متبّل.\u003c/p\u003e\u003cp data-start=\"2136\" data-end=\"2468\"\u003e\u0026nbsp;\u003c/p\u003e",
                                                 "image_url":  null
                                             },
                                             {
                                                 "id":  462,
                                                 "product_id":  1316,
                                                 "note_type":  "heart",
                                                 "ingredients_en":  "[\"[\\\"Leather\\\"\",\"\\\"Oakwood\\\"\",\"\\\"Rose Damascena\\\"\",\"\\\"Patchouli\\\"\",\"\\\"Cashmeran\\\"\",\"\\\"Caramel\\\"\",\"\\\"Plum\\\"]\"]",
                                                 "ingredients_ar":  "[\"[\\\"جلد، خشب السنديان (البلوط)، ورد دمشقي، باتشولي، كشميران، كراميل، برقوق\\\"]\"]",
                                                 "description_en":  "\u003cp\u003eTextured elegance: plush leather and oakwood cradle Damascena rose and patchouli, enriched with cashmeran, caramel, and plum for a velvety, modern opulence.\u003cbr\u003e\u0026nbsp;\u003c/p\u003e",
                                                 "description_ar":  "\u003cp data-start=\"2136\" data-end=\"2468\"\u003eأناقة مُحاكة بالتفاصيل: جلد فاخر وخشب السنديان يحتضنان الورد الدمشقي والباتشولي، مع كشميران وكراميل وبرقوق لفخامة مخملية عصرية.\u003c/p\u003e\u003cp data-start=\"2470\" data-end=\"2769\" data-is-last-node=\"\" data-is-only-node=\"\"\u003e\u0026nbsp;\u003c/p\u003e",
                                                 "image_url":  null
                                             },
                                             {
                                                 "id":  463,
                                                 "product_id":  1316,
                                                 "note_type":  "base",
                                                 "ingredients_en":  "[\"[\\\"Oud\\\"\",\"\\\"Papyrus\\\"\",\"\\\"Vetiver\\\"\",\"\\\"White Musk\\\"\",\"\\\"IncenOud\\\"\",\"\\\"Papyrus\\\"\",\"\\\"Vetiver\\\"\",\"\\\"White Musk\\\"\",\"\\\"Incense\\\"\",\"\\\"Cedarwood\\\"\",\"\\\"Talcse\\\"\",\"\\\"Cedarwood\\\"\",\"\\\"Talc\\\"]\"]",
                                                 "ingredients_ar":  "[\"[\\\"عود، بردي، فيتيفير، مسك أبيض، بخور، خشب الأرز، بودرة تلك\\\"]\"]",
                                                 "description_en":  "\u003cp\u003eEnduring aura: oud, papyrus, vetiver, incense, and cedarwood melt into soft white musk and talc, leaving a refined powdery-woody signature.\u003cbr\u003e\u0026nbsp;\u003c/p\u003e",
                                                 "description_ar":  "\u003carticle class=\"text-token-text-primary w-full focus:outline-none [--shadow-height:45px] has-data-writing-block:pointer-events-none has-data-writing-block:-mt-(--shadow-height) has-data-writing-block:pt-(--shadow-height) [\u0026amp;:has([data-writing-block])\u0026gt;*]:pointer-events-auto [content-visibility:auto] supports-[content-visibility:auto]:[contain-intrinsic-size:auto_100lvh] scroll-mt-[calc(var(--header-height)+min(200px,max(70px,20svh)))]\" tabindex=\"-1\" dir=\"auto\" data-turn-id=\"request-WEB:94be7c19-89fb-4e9c-8f1d-deb0c6881265-0\" data-testid=\"conversation-turn-2\" data-scroll-anchor=\"false\" data-turn=\"assistant\"\u003e\u003cdiv class=\"text-base my-auto mx-auto [--thread-content-margin:--spacing(4)] thread-sm:[--thread-content-margin:--spacing(6)] thread-lg:[--thread-content-margin:--spacing(16)] px-(--thread-content-margin)\"\u003e\u003cdiv class=\"[--thread-content-max-width:40rem] thread-lg:[--thread-content-max-width:48rem] mx-auto max-w-(--thread-content-max-width) flex-1 group/turn-messages focus-visible:outline-hidden relative flex w-full min-w-0 flex-col agent-turn\" tabindex=\"-1\"\u003e\u003cdiv class=\"flex max-w-full flex-col grow\"\u003e\u003cdiv class=\"min-h-8 text-message relative flex w-full flex-col items-end gap-2 text-start break-words whitespace-normal [.text-message+\u0026amp;]:mt-1\" data-message-author-role=\"assistant\" data-message-id=\"08464a93-47bc-4c37-9894-7bc027bd11b6\" dir=\"auto\" data-message-model-slug=\"gpt-5-thinking\"\u003e\u003cdiv class=\"flex w-full flex-col gap-1 empty:hidden first:pt-[1px]\"\u003e\u003cdiv class=\"markdown prose dark:prose-invert w-full break-words light markdown-new-styling\"\u003e\u003cp data-start=\"2470\" data-end=\"2769\" data-is-last-node=\"\" data-is-only-node=\"\"\u003eهالة ثابتة: يندمج العود والبردي والفيتيفير والبخور وخشب الأرز مع مسك أبيض وبودرة تلك، ليبقى أثر خشبي بودري راقٍ.\u003c/p\u003e\u003c/div\u003e\u003c/div\u003e\u003c/div\u003e\u003c/div\u003e\u003cdiv class=\"z-0 flex min-h-[46px] justify-start\"\u003e\u0026nbsp;\u003c/div\u003e\u003c/div\u003e\u003c/div\u003e\u003c/article\u003e\u003carticle class=\"text-token-text-primary w-full focus:outline-none [--shadow-height:45px] has-data-writing-block:pointer-events-none has-data-writing-block:-mt-(--shadow-height) has-data-writing-block:pt-(--shadow-height) [\u0026amp;:has([data-writing-block])\u0026gt;*]:pointer-events-auto scroll-mt-(--header-height)\" tabindex=\"-1\" dir=\"auto\" data-turn-id=\"17ea42ec-9b64-4cd7-8275-838652bc094b\" data-testid=\"conversation-turn-3\" data-scroll-anchor=\"false\" data-turn=\"user\"\u003e\u003ch5 class=\"sr-only\"\u003e\u0026nbsp;\u003c/h5\u003e\u003c/article\u003e",
                                                 "image_url":  null
                                             }
                                         ],
                     "price":  null,
                     "media":  [

                               ],
                     "stock":  [

                               ],
                     "country_visibility":  null,
                     "country_slug":  null
                 }
             ],
    "meta":  {
                 "total":  156,
                 "page":  1,
                 "limit":  1,
                 "pages":  156
             }
}
